…
# quota-light; drop it to harvest every record in the plan.
recs <- scopus_fetch_plan(plan, max_results = 25, cache_dir = dir, resume = TRUE)
}
# The offline companion, which needs no key: a record set with the plan
# that describes it attached. 'Scopus' records may not be redistributed, so
# the bundled corpus of real articles stands in for the harvest, and the
# plan describes the same search, one cell per year.
plan <- scopus_plan("graphene supercapacitor", years = 2015:2024,
                    field = "TITLE-ABS-KEY", partition = "year")
recs <- example_records
attr(recs, "plan") <- plan
recs
#> <scopus_records> 138 records
#> query: "graphene supercapacitor"
#> # A tibble: 138 × 9
#>    entry_number scopus_id doi    title authors  year date  publication citations
#>           <int> <chr>     <chr>  <chr> <chr>   <int> <chr> <chr>           <int>
#>  1            1 NA        10.15… Enha… Jianhu…  2015 2015… Journal of…         1
#>  2            2 NA        NA     Fabr… Patric…  2015 2015… DigitalCom…         0
#>  3            3 NA        10.10… Flex… Zhiwei…  2015 2015… ACS Applie…       469
#>  4            4 NA        10.10… Heav… Vikran…  2015 2015… Electrochi…       195
#>  5            5 NA        10.10… Grap… Chih-T…  2015 2015… Small             108
#>  6            6 NA        10.10… Nano… Hao Ya…  2015 2015… Journal of…        47
#>  7            7 NA        10.11… Capa… Maxwel…  2015 2015… Physical R…        32
#>  8            8 NA        10.13… Grap… Nurbek…  2015 2015… Optics Let…        48
#>  9            9 NA        10.10… Ultr… Zhong-…  2015 2015… Advanced M…       275
#> 10           10 NA        10.10… Etch… Matthe…  2015 2015… Nanotechno…        24
#> # ℹ 128 more rows
…
