Comparing topics over time • scopusflow
…
        round(seq(120, 360, length.out = length(years))),
        round(seq(40, 200, length.out = length(years))),
        round(seq(20, 150, length.out = length(years)))),
  reference_n = rep(900, 4 * length(years)),
  comparison_percentage = c(rep(100, length(years)),
                            seq(13, 40, length.out = length(years)),
                            seq(4, 22, length.out = length(years)),
                            seq(2, 17, length.out = length(years))),
  average_comparison_percentage = c(rep(100, length(years)),
                                    rep(c(27, 13, 9), each = length(years)))
)
class(cmp) <- c("scopus_comparison", class(cmp))
cmp
#> <scopus_comparison> (4 topics)
#> # A tibble: 32 × 8
#>    query query_type abridged_query  year     n reference_n comparison_percentage
#>    <chr> <chr>      <chr>          <int> <dbl>       <dbl>                 <dbl>
#>  1 q     reference  language lear…  2014   900         900                 100  
#>  2 q     reference  language lear…  2015   900         900                 100  
#>  3 q     reference  language lear…  2016   900         900                 100  
#>  4 q     reference  language lear…  2017   900         900                 100  
#>  5 q     reference  language lear…  2018   900         900                 100  
#>  6 q     reference  language lear…  2019   900         900                 100  
#>  7 q     reference  language lear…  2020   900         900                 100  
#>  8 q     reference  language lear…  2021   900         900                 100  
#>  9 q     comparison effect size     2014   120         900                  13  
#> 10 q     comparison effect size     2015   154         900                  16.9
#> # ℹ 22 more rows
#> # ℹ 1 more variable: average_comparison_percentage <dbl>
…
