Get started • scopusflow
…
A search re-run later gains records and occasionally loses one to
re-indexing. Here the baseline stops at 2023 and the second pull adds
the 2024 articles while dropping the first record:

baseline <- records[records$year <= 2023, ]
later <- records[-1, ]
print(scopus_diff_dois(old = baseline, new = later))
#> <scopus_doi_diff> 14 added, 1 removed, 112 unchanged
#> # A tibble: 127 × 2
#>    doi                            status
#>    <chr>                          <fct> 
#>  1 10.1002/adfm.202315137         added 
#>  2 10.1002/asia.202400548         added 
#>  3 10.1002/slct.202302535         added 
#>  4 10.1016/j.cej.2024.148822      added 
#>  5 10.1016/j.diamond.2024.110842  added 
#>  6 10.1016/j.isci.2024.111696     added 
#>  7 10.1016/j.jallcom.2024.175000  added 
#>  8 10.1016/j.jallcom.2024.177248  added 
#>  9 10.1016/j.jpowsour.2024.234127 added 
#> 10 10.1016/j.jpowsour.2024.236149 added 
#> # ℹ 117 more rows
…
